<?xml version="1.0" encoding="UTF-8" standalone="no"?>
<svg
   xmlns:dc="http://purl.org/dc/elements/1.1/"
   xmlns:cc="http://creativecommons.org/ns#"
   xmlns:rdf="http://www.w3.org/1999/02/22-rdf-syntax-ns#"
   xmlns:svg="http://www.w3.org/2000/svg"
   xmlns="http://www.w3.org/2000/svg"
   xmlns:sodipodi="http://sodipodi.sourceforge.net/DTD/sodipodi-0.dtd"
   xmlns:inkscape="http://www.inkscape.org/namespaces/inkscape"
   width="210mm"
   height="297mm"
   viewBox="0 0 210 297"
   version="1.1"
   id="svg8"
   inkscape:version="1.0.1 (3bc2e813f5, 2020-09-07)"
   sodipodi:docname="nannymcpi.svg">
  <defs
     id="defs2">
    <inkscape:path-effect
       effect="fillet_chamfer"
       id="path-effect2941"
       is_visible="true"
       lpeversion="1"
       satellites_param="F,0,0,1,0,10,0,1 @ F,0,0,1,0,10,0,1 @ F,0,0,1,0,10,0,1 @ F,0,0,1,0,10,0,1 @ F,0,0,1,0,10,0,1 @ F,0,0,1,0,10,0,1 @ F,0,0,1,0,10,0,1 @ F,0,0,1,0,10,0,1 @ F,0,0,1,0,10,0,1 @ F,0,0,1,0,10,0,1 @ F,0,0,1,0,10,0,1 @ F,0,0,1,0,10,0,1"
       unit="mm"
       method="auto"
       mode="F"
       radius="10"
       chamfer_steps="1"
       flexible="false"
       use_knot_distance="true"
       apply_no_radius="true"
       apply_with_radius="true"
       only_selected="false"
       hide_knots="false" />
    <inkscape:path-effect
       effect="fillet_chamfer"
       id="path-effect172"
       is_visible="true"
       lpeversion="1"
       satellites_param="F,0,0,1,0,30,0,1 @ F,0,0,1,0,30,0,1 @ F,0,0,1,0,30,0,1 @ F,0,0,1,0,30,0,1 @ F,0,0,1,0,30,0,1 @ F,0,0,1,0,30,0,1 @ F,0,0,1,0,0,0,1 @ F,0,0,1,0,263.99842,0,1 @ F,0,0,1,0,0.42980044,0,1 @ F,0,0,1,0,30,0,1 @ F,0,0,1,0,30,0,1 @ F,0,0,1,0,30,0,1 @ F,0,0,1,0,30,0,1 @ F,0,0,1,0,30,0,1 @ F,0,0,1,0,30,0,1 @ F,0,0,1,0,30,0,1"
       unit="mm"
       method="auto"
       mode="F"
       radius="30"
       chamfer_steps="1"
       flexible="false"
       use_knot_distance="true"
       apply_no_radius="true"
       apply_with_radius="true"
       only_selected="false"
       hide_knots="false" />
    <inkscape:path-effect
       effect="construct_grid"
       id="path-effect170"
       is_visible="true"
       lpeversion="1"
       nr_x="5"
       nr_y="5" />
    <inkscape:path-effect
       effect="fillet_chamfer"
       id="path-effect159"
       is_visible="true"
       lpeversion="1"
       satellites_param="F,0,0,1,0,7.9375,0,1 @ F,0,0,1,0,7.9375,0,1 @ F,0,0,1,0,7.9375,0,1 @ F,0,0,1,0,7.9375,0,1 @ F,0,0,1,0,7.9375,0,1 @ F,0,0,1,0,7.9375,0,1 @ F,0,0,1,0,7.9375,0,1 @ F,0,0,1,0,7.9375,0,1 | F,0,0,1,0,7.9375,0,1 @ F,0,0,1,0,7.9375,0,1 @ F,0,0,1,0,7.9375,0,1 @ F,0,0,1,0,7.9375,0,1 | F,0,0,1,0,7.9375,0,1 @ F,0,0,1,0,7.9375,0,1 @ F,0,0,1,0,7.9375,0,1 @ F,0,0,1,0,7.9375,0,1"
       unit="px"
       method="auto"
       mode="F"
       radius="30"
       chamfer_steps="1"
       flexible="false"
       use_knot_distance="true"
       apply_no_radius="true"
       apply_with_radius="true"
       only_selected="false"
       hide_knots="false" />
    <inkscape:path-effect
       effect="fillet_chamfer"
       id="path-effect157"
       is_visible="true"
       lpeversion="1"
       satellites_param="F,0,0,1,0,30,0,1 @ F,0,0,1,0,30,0,1 @ F,0,0,1,0,30,0,1 @ F,0,0,1,0,30,0,1 @ F,0,0,1,0,30,0,1 @ F,0,0,1,0,30,0,1 @ F,0,0,1,0,30,0,1 @ F,0,0,1,0,30,0,1 | F,0,0,1,0,30,0,1 @ F,0,0,1,0,30,0,1 @ F,0,0,1,0,30,0,1 @ F,0,0,1,0,30,0,1 | F,0,0,1,0,30,0,1 @ F,0,0,1,0,30,0,1 @ F,0,0,1,0,30,0,1 @ F,0,0,1,0,30,0,1"
       unit="mm"
       method="auto"
       mode="F"
       radius="30"
       chamfer_steps="1"
       flexible="false"
       use_knot_distance="true"
       apply_no_radius="true"
       apply_with_radius="true"
       only_selected="false"
       hide_knots="false" />
    <inkscape:path-effect
       effect="fillet_chamfer"
       id="path-effect155"
       is_visible="true"
       lpeversion="1"
       satellites_param="F,0,0,1,0,16,0,1 @ F,0,0,1,0,16,0,1 @ F,0,0,1,0,16,0,1 @ F,0,0,1,0,16,0,1 @ F,0,0,1,0,16,0,1 @ F,0,0,1,0,16,0,1 @ F,0,0,1,0,16,0,1 @ F,0,0,1,0,16,0,1 | F,0,0,1,0,16,0,1 @ F,0,0,1,0,16,0,1 @ F,0,0,1,0,16,0,1 @ F,0,0,1,0,16,0,1 | F,0,0,1,0,16,0,1 @ F,0,0,1,0,16,0,1 @ F,0,0,1,0,16,0,1 @ F,0,0,1,0,16,0,1"
       unit="mm"
       method="auto"
       mode="F"
       radius="16"
       chamfer_steps="1"
       flexible="false"
       use_knot_distance="false"
       apply_no_radius="true"
       apply_with_radius="true"
       only_selected="false"
       hide_knots="false" />
    <inkscape:path-effect
       effect="fillet_chamfer"
       id="path-effect132"
       is_visible="true"
       lpeversion="1"
       satellites_param="F,0,0,1,0,0,0,1 @ F,0,0,1,0,0,0,1 @ F,0,0,1,0,0,0,1 @ F,0,0,1,0,0,0,1 @ F,0,0,1,0,0,0,1 @ F,0,0,1,0,0,0,1 @ F,0,0,1,0,0,0,1 @ F,0,0,1,0,0,0,1 @ F,0,0,1,0,0,0,1 @ F,0,0,1,0,0,0,1 @ F,0,0,1,0,0,0,1 @ F,0,0,1,0,0,0,1 @ F,0,0,1,0,0,0,1 @ F,0,0,1,0,0,0,1 @ F,0,0,1,0,0,0,1 @ F,0,0,1,0,0,0,1"
       unit="mm"
       method="arc"
       mode="F"
       radius="30"
       chamfer_steps="1"
       flexible="false"
       use_knot_distance="false"
       apply_no_radius="true"
       apply_with_radius="true"
       only_selected="false"
       hide_knots="false" />
    <inkscape:path-effect
       effect="fillet_chamfer"
       id="path-effect3226"
       is_visible="true"
       lpeversion="1"
       satellites_param="F,0,0,1,0,0.19276226,0,1 @ F,0,0,1,0,0,0,1 @ F,0,0,1,0,29.999627,0,1 @ F,0,0,1,0,30.000348,0,1 @ F,0,0,1,0,29.999627,0,1 @ F,0,0,1,0,29.999749,0,1 @ F,0,0,1,0,37.809351,0,1 @ F,0,0,1,0,37.227242,0,1 @ F,0,0,1,0,37.22497,0,1 @ F,0,0,1,0,37.809034,0,1 @ F,0,0,1,0,30.000373,0,1 @ F,0,0,1,0,29.999652,0,1 @ F,0,0,1,0,30.000373,0,1 @ F,0,0,1,0,30.000251,0,1 @ F,0,0,1,0,0,0,1 @ F,0,0,1,0,0.26069528,0,1"
       unit="mm"
       method="auto"
       mode="F"
       radius="30"
       chamfer_steps="1"
       flexible="false"
       use_knot_distance="false"
       apply_no_radius="true"
       apply_with_radius="true"
       only_selected="false"
       hide_knots="false" />
    <inkscape:path-effect
       effect="bspline"
       id="path-effect3224"
       is_visible="true"
       lpeversion="1"
       weight="33.3333"
       steps="2"
       helper_size="0"
       apply_no_weight="true"
       apply_with_weight="true"
       only_selected="false" />
    <inkscape:path-effect
       effect="bspline"
       id="path-effect2221"
       is_visible="true"
       lpeversion="1"
       weight="33.333333"
       steps="2"
       helper_size="0"
       apply_no_weight="true"
       apply_with_weight="true"
       only_selected="false" />
    <inkscape:path-effect
       effect="fillet_chamfer"
       id="path-effect2217"
       is_visible="true"
       lpeversion="1"
       satellites_param="F,0,0,1,0,29.999996,0,1 @ F,0,0,1,0,30,0,1 @ F,0,0,1,0,30,0,1 @ F,0,0,1,0,30,0,1 @ F,0,0,1,0,30,0,1 @ F,0,0,1,0,30,0,1 @ F,0,0,1,0,30,0,1 @ F,0,0,1,0,30,0,1 @ F,0,0,1,0,30,0,1 @ F,0,0,1,0,30,0,1 @ F,0,0,1,0,30,0,1 @ F,0,0,1,0,30,0,1 @ F,0,0,1,0,30,0,1 @ F,0,0,1,0,30,0,1 @ F,0,0,1,0,30,0,1 @ F,0,0,1,0,30,0,1"
       unit="mm"
       method="auto"
       mode="F"
       radius="30"
       chamfer_steps="1"
       flexible="false"
       use_knot_distance="true"
       apply_no_radius="true"
       apply_with_radius="true"
       only_selected="false"
       hide_knots="false" />
    <inkscape:path-effect
       effect="fillet_chamfer"
       id="path-effect2213"
       is_visible="true"
       lpeversion="1"
       satellites_param="F,0,0,1,0,0,0,1 @ F,0,0,1,0,0,0,1 @ F,0,0,1,0,0,0,1 @ F,0,0,1,0,0,0,1 @ F,0,0,1,0,0,0,1 @ F,0,0,1,0,0,0,1 @ F,0,0,1,0,0,0,1 @ F,0,0,1,0,0,0,1 @ F,0,0,1,0,0,0,1 @ F,0,0,1,0,0,0,1 @ F,0,0,1,0,0,0,1 @ F,0,0,1,0,0,0,1 @ F,0,0,1,0,0,0,1 @ F,0,0,1,0,0,0,1 @ F,0,0,1,0,0,0,1 @ F,0,0,1,0,0,0,1"
       unit="mm"
       method="auto"
       mode="F"
       radius="20"
       chamfer_steps="1"
       flexible="false"
       use_knot_distance="true"
       apply_no_radius="true"
       apply_with_radius="true"
       only_selected="true"
       hide_knots="false" />
    <inkscape:path-effect
       effect="fillet_chamfer"
       id="path-effect220"
       is_visible="true"
       lpeversion="1"
       satellites_param="F,0,0,1,0,30,0,1 @ F,0,0,1,0,30,0,1 @ F,0,0,1,0,30,0,1 @ F,0,0,1,0,30,0,1 @ F,0,0,1,0,30,0,1 @ F,0,0,1,0,30,0,1 @ F,0,0,1,0,30,0,1 @ F,0,0,1,0,30,0,1 @ F,0,0,1,0,30,0,1 @ F,0,0,1,0,30,0,1 @ F,0,0,1,0,30,0,1 @ F,0,0,1,0,30,0,1"
       unit="mm"
       method="auto"
       mode="F"
       radius="30"
       chamfer_steps="1"
       flexible="false"
       use_knot_distance="true"
       apply_no_radius="true"
       apply_with_radius="true"
       only_selected="false"
       hide_knots="false" />
  </defs>
  <sodipodi:namedview
     id="base"
     pagecolor="#ffffff"
     bordercolor="#666666"
     borderopacity="1.0"
     inkscape:pageopacity="0.0"
     inkscape:pageshadow="2"
     inkscape:zoom="1"
     inkscape:cx="195.40939"
     inkscape:cy="523.71083"
     inkscape:document-units="mm"
     inkscape:current-layer="layer4"
     inkscape:document-rotation="0"
     showgrid="true"
     showguides="true"
     inkscape:guide-bbox="true"
     inkscape:snap-bbox="true"
     inkscape:snap-bbox-midpoints="true"
     inkscape:bbox-paths="true"
     inkscape:snap-bbox-edge-midpoints="true"
     inkscape:window-width="1920"
     inkscape:window-height="1017"
     inkscape:window-x="-8"
     inkscape:window-y="-8"
     inkscape:window-maximized="1"
     inkscape:object-paths="true">
    <sodipodi:guide
       position="175.50611,79.245315"
       orientation="0,1"
       id="guide171"
       inkscape:label=""
       inkscape:locked="false"
       inkscape:color="rgb(0,0,255)" />
    <sodipodi:guide
       position="192.0875,150.9575"
       orientation="0,-1"
       id="guide2131" />
    <sodipodi:guide
       position="105.50942,70.9604"
       orientation="0,1"
       id="guide2238"
       inkscape:label=""
       inkscape:locked="false"
       inkscape:color="rgb(0,0,255)" />
    <sodipodi:guide
       position="205.50975,163.46051"
       orientation="-1,0"
       id="guide3259"
       inkscape:label=""
       inkscape:locked="false"
       inkscape:color="rgb(0,0,255)" />
    <sodipodi:guide
       position="192.0875,175.95823"
       orientation="0,1"
       id="guide3263"
       inkscape:label=""
       inkscape:locked="false"
       inkscape:color="rgb(0,0,255)" />
    <sodipodi:guide
       position="5.5090872,163.46051"
       orientation="1,0"
       id="guide3265" />
    <sodipodi:guide
       position="45.509461,193.28333"
       orientation="-1,0"
       id="guide136"
       inkscape:label=""
       inkscape:locked="false"
       inkscape:color="rgb(0,0,255)" />
    <sodipodi:guide
       position="15.509087,163.46046"
       orientation="-1,0"
       id="guide158"
       inkscape:label=""
       inkscape:locked="false"
       inkscape:color="rgb(0,0,255)" />
    <sodipodi:guide
       position="165.5097,190.90208"
       orientation="-1,0"
       id="guide160"
       inkscape:label=""
       inkscape:locked="false"
       inkscape:color="rgb(0,0,255)" />
    <sodipodi:guide
       position="111.65417,245.6595"
       orientation="0,1"
       id="guide2890"
       inkscape:label=""
       inkscape:locked="false"
       inkscape:color="rgb(0,0,255)" />
  </sodipodi:namedview>
  <metadata
     id="metadata5">
    <rdf:RDF>
      <cc:Work
         rdf:about="">
        <dc:format>image/svg+xml</dc:format>
        <dc:type
           rdf:resource="http://purl.org/dc/dcmitype/StillImage" />
        <dc:title />
      </cc:Work>
    </rdf:RDF>
  </metadata>
  <g
     inkscape:groupmode="layer"
     id="layer5"
     inkscape:label="Wheels"
     style="display:inline">
    <rect
       style="fill:#808080;stroke-width:0.113649"
       id="rect562"
       width="30"
       height="75"
       x="183.50954"
       y="36.039532"
       rx="2.3076923"
       ry="2.238806" />
    <rect
       style="display:inline;fill:#808080;stroke-width:0.113649"
       id="rect562-7"
       width="30.000002"
       height="75"
       x="183.50954"
       y="156.03954"
       rx="2.3076923"
       ry="2.238806" />
    <rect
       style="display:inline;fill:#808080;stroke-width:0.113649"
       id="rect562-1"
       width="30.000002"
       height="75"
       x="-2.4904671"
       y="156.03954"
       rx="2.3076923"
       ry="2.238806" />
    <rect
       style="display:inline;fill:#808080;stroke-width:0.113649"
       id="rect562-11"
       width="30.000002"
       height="75"
       x="-2.4904671"
       y="36.039532"
       rx="2.3076923"
       ry="2.238806" />
  </g>
  <g
     inkscape:groupmode="layer"
     id="layer2"
     inkscape:label="Motors"
     style="display:inline">
    <g
       id="g882"
       transform="translate(-116.07797,-15.543806)"
       style="fill:#cccccc">
      <rect
         style="fill:#cccccc;fill-opacity:1;stroke:#000000;stroke-width:0.2;stroke-miterlimit:4;stroke-dasharray:none;stroke-opacity:1"
         id="rect842"
         width="30"
         height="30"
         x="166.6875"
         y="74.083336" />
      <circle
         style="fill:#cccccc;fill-opacity:1;stroke:#000000;stroke-width:0.2;stroke-miterlimit:4;stroke-dasharray:none;stroke-opacity:1"
         id="path844"
         cx="169.6875"
         cy="77.083328"
         r="1.5" />
      <circle
         style="opacity:0.999733;fill:#cccccc;fill-opacity:1;stroke:#000000;stroke-width:0.2;stroke-miterlimit:4;stroke-dasharray:none;stroke-opacity:1"
         id="path844-7"
         cx="193.6875"
         cy="77.083328"
         r="1.5" />
      <circle
         style="fill:#cccccc;fill-opacity:1;stroke:#000000;stroke-width:0.2;stroke-miterlimit:4;stroke-dasharray:none;stroke-opacity:1"
         id="path844-6"
         cx="193.6875"
         cy="101.08333"
         r="1.5" />
      <circle
         style="fill:#cccccc;fill-opacity:1;stroke:#000000;stroke-width:0.2;stroke-miterlimit:4;stroke-dasharray:none;stroke-opacity:1"
         id="path844-2"
         cx="169.6875"
         cy="101.08333"
         r="1.5" />
    </g>
    <g
       id="g882-7"
       transform="translate(-36.177968,-15.543806)"
       style="fill:#cccccc">
      <rect
         style="fill:#cccccc;fill-opacity:1;stroke:#000000;stroke-width:0.2;stroke-miterlimit:4;stroke-dasharray:none;stroke-opacity:1"
         id="rect842-2"
         width="30"
         height="30"
         x="166.6875"
         y="74.083336" />
      <circle
         style="fill:#cccccc;fill-opacity:1;stroke:#000000;stroke-width:0.2;stroke-miterlimit:4;stroke-dasharray:none;stroke-opacity:1"
         id="path844-27"
         cx="169.6875"
         cy="77.083328"
         r="1.5" />
      <circle
         style="opacity:0.999733;fill:#cccccc;fill-opacity:1;stroke:#000000;stroke-width:0.2;stroke-miterlimit:4;stroke-dasharray:none;stroke-opacity:1"
         id="path844-7-4"
         cx="193.6875"
         cy="77.083328"
         r="1.5" />
      <circle
         style="fill:#cccccc;fill-opacity:1;stroke:#000000;stroke-width:0.2;stroke-miterlimit:4;stroke-dasharray:none;stroke-opacity:1"
         id="path844-6-7"
         cx="193.6875"
         cy="101.08333"
         r="1.5" />
      <circle
         style="fill:#cccccc;fill-opacity:1;stroke:#000000;stroke-width:0.2;stroke-miterlimit:4;stroke-dasharray:none;stroke-opacity:1"
         id="path844-2-0"
         cx="169.6875"
         cy="101.08333"
         r="1.5" />
    </g>
    <g
       id="g882-7-2"
       transform="translate(-36.17797,104.45619)"
       style="fill:#cccccc">
      <rect
         style="fill:#cccccc;fill-opacity:1;stroke:#000000;stroke-width:0.2;stroke-miterlimit:4;stroke-dasharray:none;stroke-opacity:1"
         id="rect842-2-7"
         width="30"
         height="30"
         x="166.6875"
         y="74.083336" />
      <circle
         style="fill:#cccccc;fill-opacity:1;stroke:#000000;stroke-width:0.2;stroke-miterlimit:4;stroke-dasharray:none;stroke-opacity:1"
         id="path844-27-0"
         cx="169.6875"
         cy="77.083328"
         r="1.5" />
      <circle
         style="opacity:0.999733;fill:#cccccc;fill-opacity:1;stroke:#000000;stroke-width:0.2;stroke-miterlimit:4;stroke-dasharray:none;stroke-opacity:1"
         id="path844-7-4-4"
         cx="193.6875"
         cy="77.083328"
         r="1.5" />
      <circle
         style="fill:#cccccc;fill-opacity:1;stroke:#000000;stroke-width:0.2;stroke-miterlimit:4;stroke-dasharray:none;stroke-opacity:1"
         id="path844-6-7-3"
         cx="193.6875"
         cy="101.08333"
         r="1.5" />
      <circle
         style="fill:#cccccc;fill-opacity:1;stroke:#000000;stroke-width:0.2;stroke-miterlimit:4;stroke-dasharray:none;stroke-opacity:1"
         id="path844-2-0-6"
         cx="169.6875"
         cy="101.08333"
         r="1.5" />
    </g>
    <g
       id="g882-7-3"
       transform="translate(-116.07797,104.45619)"
       style="fill:#cccccc">
      <rect
         style="fill:#cccccc;fill-opacity:1;stroke:#000000;stroke-width:0.2;stroke-miterlimit:4;stroke-dasharray:none;stroke-opacity:1"
         id="rect842-2-5"
         width="30"
         height="30"
         x="166.6875"
         y="74.083336" />
      <circle
         style="fill:#cccccc;fill-opacity:1;stroke:#000000;stroke-width:0.2;stroke-miterlimit:4;stroke-dasharray:none;stroke-opacity:1"
         id="path844-27-8"
         cx="169.6875"
         cy="77.083328"
         r="1.5" />
      <circle
         style="opacity:0.999733;fill:#cccccc;fill-opacity:1;stroke:#000000;stroke-width:0.2;stroke-miterlimit:4;stroke-dasharray:none;stroke-opacity:1"
         id="path844-7-4-9"
         cx="193.6875"
         cy="77.083328"
         r="1.5" />
      <circle
         style="fill:#cccccc;fill-opacity:1;stroke:#000000;stroke-width:0.2;stroke-miterlimit:4;stroke-dasharray:none;stroke-opacity:1"
         id="path844-6-7-5"
         cx="193.6875"
         cy="101.08333"
         r="1.5" />
      <circle
         style="fill:#cccccc;fill-opacity:1;stroke:#000000;stroke-width:0.2;stroke-miterlimit:4;stroke-dasharray:none;stroke-opacity:1"
         id="path844-2-0-9"
         cx="169.6875"
         cy="101.08333"
         r="1.5" />
    </g>
  </g>
  <g
     inkscape:label="Motor Base"
     inkscape:groupmode="layer"
     id="layer1"
     style="display:inline;opacity:0.6">
    <path
       id="rect2922"
       style="opacity:0.7;fill:#ececec;stroke:#000000;stroke-width:0.499999"
       d="m 35.460699,51.392369 v 59.652501 a 10,10 135 0 1 -10,10 H 15.50904 a 10,10 135 0 0 -10.0000003,10 v 5.11681 a 10,10 45 0 0 10.0000003,10 h 9.933056 a 10,10 45 0 1 10,10 v 59.92949 a 10,10 45 0 0 10,10 H 165.58031 a 10,10 135 0 0 10,-10 v -59.92639 a 10,10 135 0 1 10,-10 h 9.92944 a 10,10 135 0 0 10,-10 v -5.12301 a 10,10 45 0 0 -10,-10 h -9.94856 a 10,10 45 0 1 -10,-10 V 51.392369 a 10,10 45 0 0 -10,-10 H 45.460699 a 10,10 135 0 0 -10,10 z"
       inkscape:path-effect="#path-effect2941"
       inkscape:original-d="M 35.460699,41.392369 V 121.04487 H 5.5090397 v 25.11681 H 35.442096 v 79.92949 H 175.58031 v -79.92639 h 29.92944 V 121.04177 H 175.56119 V 41.392369 Z" />
    <circle
       style="display:inline;opacity:0.999733;fill:#ffffff;fill-opacity:1;stroke:#000000;stroke-width:0.2;stroke-miterlimit:4;stroke-dasharray:none;stroke-opacity:1"
       id="path962-2-7"
       cx="190.50931"
       cy="133.53954"
       r="2" />
    <circle
       style="display:inline;opacity:0.999733;fill:#ffffff;fill-opacity:1;stroke:#000000;stroke-width:0.2;stroke-miterlimit:4;stroke-dasharray:none;stroke-opacity:1"
       id="path962-8-8-9"
       cx="20.509333"
       cy="133.53954"
       r="2" />
    <circle
       style="display:inline;opacity:0.999733;fill:#ffffff;fill-opacity:1;stroke:#000000;stroke-width:0.2;stroke-miterlimit:4;stroke-dasharray:none;stroke-opacity:1"
       id="path962-4-8-4"
       cx="45.50946"
       cy="51.3405"
       r="2" />
    <circle
       style="display:inline;opacity:0.999733;fill:#ffffff;fill-opacity:1;stroke:#000000;stroke-width:0.2;stroke-miterlimit:4;stroke-dasharray:none;stroke-opacity:1"
       id="path962-9-2-3-5"
       cx="105.50954"
       cy="211.03954"
       r="2" />
    <text
       xml:space="preserve"
       style="font-style:normal;font-weight:normal;font-size:10.5833px;line-height:1.25;font-family:sans-serif;letter-spacing:0px;word-spacing:0px;fill:#000000;fill-opacity:1;stroke:none;stroke-width:0.264583"
       x="89.745697"
       y="120.88158"
       id="text1544"><tspan
         sodipodi:role="line"
         x="89.745697"
         y="120.88158"
         style="stroke-width:0.264583"
         id="tspan1546">Motor</tspan></text>
    <text
       xml:space="preserve"
       style="font-style:normal;font-weight:normal;font-size:10.5833px;line-height:1.25;font-family:sans-serif;letter-spacing:0px;word-spacing:0px;fill:#000000;fill-opacity:1;stroke:none;stroke-width:0.264583"
       x="92.536064"
       y="133.58157"
       id="text1552"><tspan
         sodipodi:role="line"
         id="tspan1550"
         x="92.536064"
         y="133.58157"
         style="stroke-width:0.264583">Base</tspan></text>
    <rect
       style="display:inline;fill:#ffffff;stroke:#000000;stroke-width:0.499999;stroke-miterlimit:4;stroke-dasharray:none"
       id="rect3235-2"
       width="40"
       height="10"
       x="85.509506"
       y="188.53954"
       rx="3"
       ry="3.0000045" />
    <rect
       style="display:inline;fill:#ffffff;stroke:#000000;stroke-width:0.499999;stroke-miterlimit:4;stroke-dasharray:none"
       id="rect3235"
       width="40"
       height="10"
       x="85.509506"
       y="68.539528"
       rx="3"
       ry="3.0000045" />
    <circle
       style="display:inline;opacity:0.999733;fill:#ffffff;fill-opacity:1;stroke:#000000;stroke-width:0.2;stroke-miterlimit:4;stroke-dasharray:none;stroke-opacity:1"
       id="path962-4-8-4-7"
       cx="165.5097"
       cy="51.3405"
       r="2" />
  </g>
  <g
     inkscape:groupmode="layer"
     id="layer4"
     inkscape:label="Middle Layer"
     style="display:inline;opacity:0.6">
    <g
       id="g2156"
       transform="matrix(1,0,0,1.0000281,9.8850325e-5,-0.09828418)">
      <path
         id="rect835-7"
         style="display:inline;fill:#f2f2f2;fill-opacity:1;stroke:#000000;stroke-width:1.18278;stroke-miterlimit:4;stroke-dasharray:none;stroke-opacity:1"
         d="m 134.20898,157.35547 v 270.11719 c 0,16.56854 -13.43146,30 -30,30 H 51.414062 c -16.568542,0 -30,13.43146 -30,30 v 34.48828 c 0,16.56854 13.431458,30 30,30 h 52.794918 c 16.56854,0 30,13.43146 30,30 v 240.11803 c 0,16.56854 13.4315,32.03525 30,31.99994 l 469.13477,-0.99997 c 16.5685,-0.0353 30,-14.43143 30,-30.99998 V 581.96094 c 0,-16.56854 13.43146,-30 30,-30 h 52.79297 c 16.56854,0 30,-13.43146 30,-30 v -34.48828 c 0,-16.56854 -13.43146,-30 -30,-30 h -52.79297 c -16.56854,0 -30,-13.43146 -30,-30 V 157.35547 c 0,-16.56854 -13.43146,-30 -30,-30 H 164.20898 c -16.56854,0 -30,13.43146 -30,30 z"
         transform="scale(0.26458333)"
         sodipodi:nodetypes="sssssssssssssssssssssssss" />
      <g
         aria-label="Middle"
         id="text1540"
         style="font-style:normal;font-weight:normal;font-size:10.5833px;line-height:1.25;font-family:sans-serif;letter-spacing:0px;word-spacing:0px;display:inline;opacity:0.6;fill:#000000;fill-opacity:1;stroke:none;stroke-width:0.264583"
         transform="translate(-1.0583333,96.834779)">
        <path
           d="m 96.026721,93.829132 h -1.02319 v -6.630065 l -2.139398,4.511338 h -0.60978 l -2.123894,-4.511338 v 6.630065 h -0.956011 v -7.694596 h 1.395259 l 2.051548,4.283962 1.984369,-4.283962 h 1.421097 z"
           style="stroke-width:0.264583"
           id="path2200" />
        <path
           d="M 99.060118,87.090547 H 97.964581 V 86.08286 h 1.095537 z m -0.06201,6.738585 h -0.971514 v -5.772239 h 0.971514 z"
           style="stroke-width:0.264583"
           id="path2202" />
        <path
           d="m 105.60233,93.829132 h -0.97151 V 93.22452 q -0.41858,0.361734 -0.87333,0.563271 -0.45475,0.201538 -0.98702,0.201538 -1.03352,0 -1.6433,-0.795815 -0.60461,-0.795815 -0.60461,-2.206577 0,-0.733803 0.2067,-1.307409 0.21187,-0.573607 0.56844,-0.976682 0.3514,-0.392739 0.81649,-0.599444 0.47025,-0.206705 0.97151,-0.206705 0.45475,0 0.80615,0.09818 0.3514,0.09302 0.73897,0.294555 v -2.501131 h 0.97151 z m -0.97151,-1.421097 v -3.312449 q -0.39274,-0.175699 -0.7028,-0.242879 -0.31006,-0.06718 -0.67696,-0.06718 -0.81648,0 -1.27123,0.568439 -0.45475,0.568439 -0.45475,1.6123 0,1.028358 0.35139,1.565791 0.3514,0.532265 1.12655,0.532265 0.41341,0 0.83715,-0.180867 0.42375,-0.186034 0.79065,-0.47542 z"
           style="stroke-width:0.264583"
           id="path2204" />
        <path
           d="m 112.19622,93.829132 h -0.97151 V 93.22452 q -0.41858,0.361734 -0.87333,0.563271 -0.45475,0.201538 -0.98701,0.201538 -1.03353,0 -1.64331,-0.795815 -0.60461,-0.795815 -0.60461,-2.206577 0,-0.733803 0.2067,-1.307409 0.21188,-0.573607 0.56844,-0.976682 0.3514,-0.392739 0.81649,-0.599444 0.47025,-0.206705 0.97151,-0.206705 0.45475,0 0.80615,0.09818 0.3514,0.09302 0.73897,0.294555 v -2.501131 h 0.97151 z m -0.97151,-1.421097 v -3.312449 q -0.39274,-0.175699 -0.7028,-0.242879 -0.31005,-0.06718 -0.67696,-0.06718 -0.81648,0 -1.27123,0.568439 -0.45475,0.568439 -0.45475,1.6123 0,1.028358 0.3514,1.565791 0.35139,0.532265 1.12654,0.532265 0.41341,0 0.83715,-0.180867 0.42375,-0.186034 0.79065,-0.47542 z"
           style="stroke-width:0.264583"
           id="path2206" />
        <path
           d="m 115.0901,93.829132 h -0.97152 v -8.040827 h 0.97152 z"
           style="stroke-width:0.264583"
           id="path2208" />
        <path
           d="m 121.84418,91.043781 h -4.25295 q 0,0.532266 0.16019,0.930173 0.1602,0.39274 0.43925,0.645953 0.26872,0.248046 0.63562,0.37207 0.37207,0.124023 0.81649,0.124023 0.5891,0 1.18338,-0.232544 0.59945,-0.23771 0.85266,-0.465086 h 0.0517 v 1.059363 q -0.49093,0.206706 -1.00252,0.346231 -0.5116,0.139526 -1.07487,0.139526 -1.4366,0 -2.24275,-0.775144 -0.80615,-0.780311 -0.80615,-2.211744 0,-1.41593 0.76998,-2.247918 0.77514,-0.831987 2.03604,-0.831987 1.16789,0 1.79834,0.682126 0.63561,0.682127 0.63561,1.93786 z m -0.94567,-0.744138 q -0.005,-0.764809 -0.38757,-1.183387 -0.37724,-0.418577 -1.15238,-0.418577 -0.78032,0 -1.2454,0.459918 -0.45992,0.459919 -0.52193,1.142046 z"
           style="stroke-width:0.264583"
           id="path2210" />
      </g>
    </g>
    <circle
       style="display:inline;opacity:0.999733;fill:#ffffff;fill-opacity:1;stroke:#000000;stroke-width:0.2;stroke-miterlimit:4;stroke-dasharray:none;stroke-opacity:1"
       id="path962-2-7-6"
       cx="190.50931"
       cy="133.53954"
       r="2" />
    <circle
       style="display:inline;opacity:0.999733;fill:#ffffff;fill-opacity:1;stroke:#000000;stroke-width:0.2;stroke-miterlimit:4;stroke-dasharray:none;stroke-opacity:1"
       id="path962-8-8-9-5"
       cx="20.509333"
       cy="133.53954"
       r="2" />
    <circle
       style="display:inline;opacity:0.999733;fill:#ffffff;fill-opacity:1;stroke:#000000;stroke-width:0.2;stroke-miterlimit:4;stroke-dasharray:none;stroke-opacity:1"
       id="path962-4-8-4-5"
       cx="105.50952"
       cy="56.039532"
       r="2" />
    <circle
       style="display:inline;opacity:0.999733;fill:#ffffff;fill-opacity:1;stroke:#000000;stroke-width:0.2;stroke-miterlimit:4;stroke-dasharray:none;stroke-opacity:1"
       id="path962-9-2-3-5-3"
       cx="105.50952"
       cy="211.03954"
       r="2" />
    <circle
       style="display:inline;opacity:0.6;fill:#ffffff;stroke:#000000;stroke-width:0.499999;stroke-miterlimit:4;stroke-dasharray:none"
       id="path2240-7"
       cx="60.509323"
       cy="41.999992"
       r="2" />
    <circle
       style="display:inline;opacity:0.6;fill:#ffffff;stroke:#000000;stroke-width:0.499999;stroke-miterlimit:4;stroke-dasharray:none"
       id="path2240-6-9"
       cx="150.50932"
       cy="118"
       r="2" />
    <circle
       style="display:inline;opacity:0.6;fill:#ffffff;stroke:#000000;stroke-width:0.499999;stroke-miterlimit:4;stroke-dasharray:none"
       id="path2240-3-1"
       cx="60.509323"
       cy="118"
       r="2" />
    <circle
       style="display:inline;opacity:0.6;fill:#ffffff;stroke:#000000;stroke-width:0.499999;stroke-miterlimit:4;stroke-dasharray:none"
       id="path2240-68-2"
       cx="150.50932"
       cy="41.999992"
       r="2" />
    <circle
       style="display:inline;opacity:0.999733;fill:#ffffff;fill-opacity:1;stroke:#000000;stroke-width:0.2;stroke-miterlimit:4;stroke-dasharray:none;stroke-opacity:1"
       id="path962-2-7-9"
       cx="190.50931"
       cy="133.53952"
       r="2" />
    <circle
       style="display:inline;opacity:0.999733;fill:#ffffff;fill-opacity:1;stroke:#000000;stroke-width:0.2;stroke-miterlimit:4;stroke-dasharray:none;stroke-opacity:1"
       id="path962-8-8-9-2"
       cx="20.509338"
       cy="133.53952"
       r="2" />
    <circle
       style="display:inline;opacity:0.999733;fill:#ffffff;fill-opacity:1;stroke:#000000;stroke-width:0.2;stroke-miterlimit:4;stroke-dasharray:none;stroke-opacity:1"
       id="path962-4-8-4-2"
       cx="45.50946"
       cy="51.3405"
       r="2" />
    <circle
       style="display:inline;opacity:0.999733;fill:#ffffff;fill-opacity:1;stroke:#000000;stroke-width:0.2;stroke-miterlimit:4;stroke-dasharray:none;stroke-opacity:1"
       id="path962-9-2-3-5-8"
       cx="105.50954"
       cy="211.03954"
       r="2" />
    <circle
       style="display:inline;opacity:0.6;fill:#ffffff;stroke:#000000;stroke-width:0.499999;stroke-miterlimit:4;stroke-dasharray:none"
       id="path2240-6-3-5"
       cx="45.509533"
       cy="210.88306"
       r="2" />
    <circle
       style="display:inline;opacity:0.6;fill:#ffffff;stroke:#000000;stroke-width:0.499999;stroke-miterlimit:4;stroke-dasharray:none"
       id="path2240-6-3-6-8"
       cx="165.5097"
       cy="210.88306"
       r="2" />
    <path
       id="rect3230"
       style="display:inline;opacity:0.6;fill:#ffffff;stroke:#000000;stroke-width:0.499999;stroke-miterlimit:4;stroke-dasharray:none"
       d="m 52.111539,130.58206 h 1 c 1.662,0 3,1.338 3,3 v 44 c 0,1.662 -1.338,3 -3,3 h -1 c -1.662,0 -3,-1.338 -3,-3 v -44 c 0,-1.662 1.338,-3 3,-3 z" />
    <rect
       style="display:inline;opacity:0.7;fill:#ffffff;stroke:#000000;stroke-width:0.305552"
       id="rect2869-2"
       width="29.694448"
       height="5.694448"
       x="90.662102"
       y="67.152763"
       rx="1.7178212"
       ry="1.9565748" />
    <circle
       style="display:inline;opacity:0.999733;fill:#ffffff;fill-opacity:1;stroke:#000000;stroke-width:0.2;stroke-miterlimit:4;stroke-dasharray:none;stroke-opacity:1"
       id="path962-4-8-4-2-6"
       cx="165.50932"
       cy="51.839531"
       r="2" />
    <rect
       style="display:inline;opacity:0.7;fill:#ffffff;stroke:#000000;stroke-width:0.305552"
       id="rect2869"
       width="29.694448"
       height="5.694448"
       x="90.662102"
       y="87.152779"
       rx="1.7178212"
       ry="1.9565748" />
  </g>
  <g
     inkscape:groupmode="layer"
     id="layer7"
     inkscape:label="Battery"
     style="display:inline;opacity:0.6">
    <rect
       style="fill:#ff0000;stroke-width:0.1"
       id="rect2224"
       width="120"
       height="70"
       x="45.509319"
       y="45"
       rx="5"
       ry="5" />
    <text
       xml:space="preserve"
       style="font-style:normal;font-weight:normal;font-size:10.5833px;line-height:1.25;font-family:sans-serif;letter-spacing:0px;word-spacing:0px;fill:#000000;fill-opacity:1;stroke:none;stroke-width:0.264583"
       x="85.632042"
       y="82.782768"
       id="text2232"><tspan
         sodipodi:role="line"
         id="tspan2230"
         x="85.632042"
         y="82.782768"
         style="stroke-width:0.264583">Battery</tspan></text>
  </g>
  <g
     inkscape:groupmode="layer"
     id="layer6"
     inkscape:label="Pi"
     style="display:inline;opacity:0.6">
    <g
       id="g2147"
       transform="translate(1.1082856e-5,-1.6306214)">
      <g
         id="g990"
         style="display:inline;opacity:0.7;fill:#00aa00;fill-opacity:1;stroke-width:0.5;stroke-miterlimit:4;stroke-dasharray:none"
         transform="rotate(180,112.64227,131.28385)">
        <g
           id="g891"
           transform="translate(2.919401,54.097052)"
           style="fill:#00aa00;fill-opacity:1;stroke-width:0.5;stroke-miterlimit:4;stroke-dasharray:none">
          <rect
             transform="scale(-1)"
             y="-79.810265"
             x="-163.32018"
             height="54.529114"
             width="92.929123"
             id="rect4715"
             style="display:inline;fill:#00aa00;fill-opacity:1;stroke:#000000;stroke-width:0.5;stroke-miterlimit:4;stroke-dasharray:none;stroke-opacity:1" />
          <path
             inkscape:connector-curvature="0"
             id="path999"
             d="m 162.25361,29.17737 h -5"
             style="fill:#00aa00;fill-opacity:1;stroke:#000000;stroke-width:0.5;stroke-linecap:butt;stroke-linejoin:miter;stroke-miterlimit:4;stroke-dasharray:none;stroke-opacity:1" />
          <path
             inkscape:connector-curvature="0"
             id="path1001"
             d="m 159.63018,26.545708 v 5"
             style="fill:#00aa00;fill-opacity:1;stroke:#000000;stroke-width:0.5;stroke-linecap:butt;stroke-linejoin:miter;stroke-miterlimit:4;stroke-dasharray:none;stroke-opacity:1" />
          <path
             inkscape:connector-curvature="0"
             id="path999-8"
             d="M 104.25361,28.914046 H 99.253609"
             style="display:inline;fill:#00aa00;fill-opacity:1;stroke:#000000;stroke-width:0.5;stroke-linecap:butt;stroke-linejoin:miter;stroke-miterlimit:4;stroke-dasharray:none;stroke-opacity:1" />
          <path
             inkscape:connector-curvature="0"
             id="path1001-9"
             d="m 101.75361,26.545708 v 5"
             style="display:inline;fill:#00aa00;fill-opacity:1;stroke:#000000;stroke-width:0.5;stroke-linecap:butt;stroke-linejoin:miter;stroke-miterlimit:4;stroke-dasharray:none;stroke-opacity:1" />
          <path
             inkscape:connector-curvature="0"
             id="path999-6"
             d="m 162.25361,77.914043 h -5"
             style="display:inline;fill:#00aa00;fill-opacity:1;stroke:#000000;stroke-width:0.5;stroke-linecap:butt;stroke-linejoin:miter;stroke-miterlimit:4;stroke-dasharray:none;stroke-opacity:1" />
          <path
             inkscape:connector-curvature="0"
             id="path1001-2"
             d="m 159.87703,75.545713 v 5"
             style="display:inline;fill:#00aa00;fill-opacity:1;stroke:#000000;stroke-width:0.5;stroke-linecap:butt;stroke-linejoin:miter;stroke-miterlimit:4;stroke-dasharray:none;stroke-opacity:1" />
          <g
             transform="rotate(90,105.37413,117.82784)"
             id="g1047"
             style="fill:#00aa00;fill-opacity:1;stroke-width:0.5;stroke-miterlimit:4;stroke-dasharray:none">
            <path
               style="display:inline;fill:#00aa00;fill-opacity:1;stroke:#000000;stroke-width:0.5;stroke-linecap:butt;stroke-linejoin:miter;stroke-miterlimit:4;stroke-dasharray:none;stroke-opacity:1"
               d="m 65.460338,118.94836 v 5"
               id="path999-9"
               inkscape:connector-curvature="0"
               inkscape:transform-center-x="15.518529"
               inkscape:transform-center-y="-5.8796345" />
            <path
               style="display:inline;fill:#00aa00;fill-opacity:1;stroke:#000000;stroke-width:0.5;stroke-linecap:butt;stroke-linejoin:miter;stroke-miterlimit:4;stroke-dasharray:none;stroke-opacity:1"
               d="m 62.828676,121.32494 h 5"
               id="path1001-8"
               inkscape:connector-curvature="0"
               inkscape:transform-center-x="15.650191"
               inkscape:transform-center-y="-6.0030585" />
          </g>
        </g>
      </g>
      <text
         xml:space="preserve"
         style="font-style:normal;font-weight:normal;font-size:10.5833px;line-height:1.25;font-family:sans-serif;letter-spacing:0px;word-spacing:0px;fill:#000000;fill-opacity:1;stroke:none;stroke-width:0.264583"
         x="100.80183"
         y="157.21268"
         id="text1536"><tspan
           sodipodi:role="line"
           id="tspan1534"
           x="100.80183"
           y="157.21268"
           style="stroke-width:0.264583">Pi</tspan></text>
    </g>
  </g>
  <g
     inkscape:groupmode="layer"
     id="layer3"
     inkscape:label="Top Layer"
     style="display:inline;opacity:1">
    <path
       id="rect835-7-9"
       style="display:inline;opacity:0.6;fill:#ffeeaa;fill-opacity:1;stroke:#000000;stroke-width:1.18278;stroke-miterlimit:4;stroke-dasharray:none;stroke-opacity:1"
       d="m 154.32227,127.35547 c -29.86546,0 -133.04015,214.61575 -132.908208,253.88867 L 21.984375,551 81.820312,835.42578 c 7.295774,38.58954 58.636528,46.65034 90.501958,46.65234 h 76.22851 c 20.2481,-10e-4 21.57015,0.66332 43.74414,-0.002 23.90343,-3.70314 52.77453,-25.41126 76.03125,-41.46484 9.21164,-6.35853 30.44922,-5.18555 30.44922,-5.18555 0,0 21.23759,-1.17301 30.44922,5.18555 23.25671,16.05355 52.12782,37.76171 76.03125,41.46484 22.17401,0.66528 23.49605,9.7e-4 43.74414,0.002 h 76.22852 c 31.86544,-0.002 83.20618,-8.0628 90.50195,-46.65234 L 775.56641,551 776.13672,384.24414 C 776.27103,344.97123 675.09396,127.35547 645.22852,127.35547 H 398.77539 Z"
       transform="scale(0.26458333)"
       sodipodi:nodetypes="sscccccscscccccsscs" />
    <text
       xml:space="preserve"
       style="font-style:normal;font-weight:normal;font-size:10.5833px;line-height:1.25;font-family:sans-serif;letter-spacing:0px;word-spacing:0px;fill:#000000;fill-opacity:1;stroke:none;stroke-width:0.264583"
       x="95.179436"
       y="61.794323"
       id="text1528"><tspan
         sodipodi:role="line"
         x="95.179436"
         y="61.794323"
         style="stroke-width:0.264583"
         id="tspan1530">TOP</tspan></text>
    <circle
       style="fill:#ffffff;stroke:#000000;stroke-width:0.5;stroke-miterlimit:4;stroke-dasharray:none"
       id="path2240"
       cx="60.509319"
       cy="41.999992"
       r="2" />
    <circle
       style="display:inline;opacity:0.6;fill:#ffffff;stroke:#000000;stroke-width:0.499999;stroke-miterlimit:4;stroke-dasharray:none"
       id="path2240-6"
       cx="150.50932"
       cy="117.99999"
       r="2" />
    <circle
       style="display:inline;opacity:0.6;fill:#ffffff;stroke:#000000;stroke-width:0.499999;stroke-miterlimit:4;stroke-dasharray:none"
       id="path2240-3"
       cx="60.509319"
       cy="117.99999"
       r="2" />
    <circle
       style="display:inline;opacity:0.6;fill:#ffffff;stroke:#000000;stroke-width:0.499999;stroke-miterlimit:4;stroke-dasharray:none"
       id="path2240-68"
       cx="150.50932"
       cy="41.999992"
       r="2" />
    <circle
       style="display:inline;opacity:0.6;fill:#ffffff;stroke:#000000;stroke-width:0.499999;stroke-miterlimit:4;stroke-dasharray:none"
       id="path2240-6-3"
       cx="45.509533"
       cy="210.88306"
       r="2" />
    <circle
       style="display:inline;opacity:0.6;fill:#ffffff;stroke:#000000;stroke-width:0.499999;stroke-miterlimit:4;stroke-dasharray:none"
       id="path2240-6-3-6"
       cx="165.5097"
       cy="210.88306"
       r="2" />
    <rect
       style="fill:#ffffff;stroke:#000000;stroke-width:0.499999;stroke-miterlimit:4;stroke-dasharray:none"
       id="rect3269"
       width="13"
       height="20"
       x="15.759087"
       y="123.53954" />
  </g>
</svg>
