<?xml version="1.0" encoding="UTF-8" standalone="no"?>
<svg
   xmlns:dc="http://purl.org/dc/elements/1.1/"
   xmlns:cc="http://creativecommons.org/ns#"
   xmlns:rdf="http://www.w3.org/1999/02/22-rdf-syntax-ns#"
   xmlns:svg="http://www.w3.org/2000/svg"
   xmlns="http://www.w3.org/2000/svg"
   xmlns:sodipodi="http://sodipodi.sourceforge.net/DTD/sodipodi-0.dtd"
   xmlns:inkscape="http://www.inkscape.org/namespaces/inkscape"
   width="297mm"
   height="210mm"
   viewBox="0 0 297 210"
   version="1.1"
   id="svg8"
   inkscape:version="1.0.1 (3bc2e813f5, 2020-09-07)"
   sodipodi:docname="nannymcpi.svg">
  <defs
     id="defs2" />
  <sodipodi:namedview
     id="base"
     pagecolor="#ffffff"
     bordercolor="#666666"
     borderopacity="1.0"
     inkscape:pageopacity="0.0"
     inkscape:pageshadow="2"
     inkscape:zoom="0.94"
     inkscape:cx="590.02969"
     inkscape:cy="398.60445"
     inkscape:document-units="mm"
     inkscape:current-layer="layer4"
     inkscape:document-rotation="0"
     showgrid="true"
     showguides="true"
     inkscape:guide-bbox="true"
     inkscape:snap-bbox="true"
     inkscape:snap-bbox-midpoints="true"
     inkscape:bbox-paths="true"
     inkscape:snap-bbox-edge-midpoints="true"
     inkscape:window-width="1920"
     inkscape:window-height="1017"
     inkscape:window-x="-8"
     inkscape:window-y="-8"
     inkscape:window-maximized="1">
    <sodipodi:guide
       position="242.12631,44.776153"
       orientation="-1,0"
       id="guide875"
       inkscape:label="26"
       inkscape:locked="false"
       inkscape:color="rgb(0,0,255)" />
    <sodipodi:guide
       position="191.97409,61.91048"
       orientation="0,-1"
       id="guide581" />
    <sodipodi:guide
       position="61.821873,43.931738"
       orientation="-1,0"
       id="guide583"
       inkscape:label=""
       inkscape:locked="false"
       inkscape:color="rgb(0,0,255)" />
    <sodipodi:guide
       position="151.97409,161.81048"
       orientation="1,0"
       id="guide615" />
    <sodipodi:guide
       position="106.97409,101.81049"
       orientation="0,-1"
       id="guide617" />
    <sodipodi:guide
       position="205.47429,26.810493"
       orientation="0,1"
       id="guide1459"
       inkscape:label=""
       inkscape:locked="false"
       inkscape:color="rgb(0,0,255)" />
    <sodipodi:guide
       position="190.55629,96.81049"
       orientation="0,1"
       id="guide1461"
       inkscape:label=""
       inkscape:locked="false"
       inkscape:color="rgb(0,0,255)" />
  </sodipodi:namedview>
  <metadata
     id="metadata5">
    <rdf:RDF>
      <cc:Work
         rdf:about="">
        <dc:format>image/svg+xml</dc:format>
        <dc:type
           rdf:resource="http://purl.org/dc/dcmitype/StillImage" />
        <dc:title></dc:title>
      </cc:Work>
    </rdf:RDF>
  </metadata>
  <g
     inkscape:groupmode="layer"
     id="layer5"
     inkscape:label="Wheels"
     style="display:inline">
    <rect
       style="fill:#808080;stroke-width:0.1"
       id="rect562"
       width="26"
       height="67"
       x="230.77409"
       y="34.78952"
       rx="2"
       ry="2" />
    <rect
       style="fill:#808080;stroke-width:0.1"
       id="rect562-2"
       width="26"
       height="67"
       x="230.77409"
       y="114.58952"
       rx="2"
       ry="2" />
    <rect
       style="fill:#808080;stroke-width:0.1"
       id="rect562-6"
       width="26"
       height="67"
       x="47.174091"
       y="34.78952"
       rx="2"
       ry="2" />
    <rect
       style="fill:#808080;stroke-width:0.1"
       id="rect562-2-1"
       width="26"
       height="67"
       x="47.174091"
       y="114.58952"
       rx="2"
       ry="2" />
  </g>
  <g
     inkscape:groupmode="layer"
     id="layer2"
     inkscape:label="Motors"
     style="display:inline">
    <g
       id="g882"
       transform="translate(-69.61341,-20.793816)"
       style="fill:#cccccc">
      <rect
         style="fill:#cccccc;fill-opacity:1;stroke:#000000;stroke-width:0.2;stroke-miterlimit:4;stroke-dasharray:none;stroke-opacity:1"
         id="rect842"
         width="30"
         height="30"
         x="166.6875"
         y="74.083336" />
      <circle
         style="fill:#cccccc;fill-opacity:1;stroke:#000000;stroke-width:0.2;stroke-miterlimit:4;stroke-dasharray:none;stroke-opacity:1"
         id="path844"
         cx="169.6875"
         cy="77.083328"
         r="1.5" />
      <circle
         style="opacity:0.999733;fill:#cccccc;fill-opacity:1;stroke:#000000;stroke-width:0.2;stroke-miterlimit:4;stroke-dasharray:none;stroke-opacity:1"
         id="path844-7"
         cx="193.6875"
         cy="77.083328"
         r="1.5" />
      <circle
         style="fill:#cccccc;fill-opacity:1;stroke:#000000;stroke-width:0.2;stroke-miterlimit:4;stroke-dasharray:none;stroke-opacity:1"
         id="path844-6"
         cx="193.6875"
         cy="101.08333"
         r="1.5" />
      <circle
         style="fill:#cccccc;fill-opacity:1;stroke:#000000;stroke-width:0.2;stroke-miterlimit:4;stroke-dasharray:none;stroke-opacity:1"
         id="path844-2"
         cx="169.6875"
         cy="101.08333"
         r="1.5" />
    </g>
    <g
       id="g882-7"
       transform="translate(10.286589,-20.793816)"
       style="fill:#cccccc">
      <rect
         style="fill:#cccccc;fill-opacity:1;stroke:#000000;stroke-width:0.2;stroke-miterlimit:4;stroke-dasharray:none;stroke-opacity:1"
         id="rect842-2"
         width="30"
         height="30"
         x="166.6875"
         y="74.083336" />
      <circle
         style="fill:#cccccc;fill-opacity:1;stroke:#000000;stroke-width:0.2;stroke-miterlimit:4;stroke-dasharray:none;stroke-opacity:1"
         id="path844-27"
         cx="169.6875"
         cy="77.083328"
         r="1.5" />
      <circle
         style="opacity:0.999733;fill:#cccccc;fill-opacity:1;stroke:#000000;stroke-width:0.2;stroke-miterlimit:4;stroke-dasharray:none;stroke-opacity:1"
         id="path844-7-4"
         cx="193.6875"
         cy="77.083328"
         r="1.5" />
      <circle
         style="fill:#cccccc;fill-opacity:1;stroke:#000000;stroke-width:0.2;stroke-miterlimit:4;stroke-dasharray:none;stroke-opacity:1"
         id="path844-6-7"
         cx="193.6875"
         cy="101.08333"
         r="1.5" />
      <circle
         style="fill:#cccccc;fill-opacity:1;stroke:#000000;stroke-width:0.2;stroke-miterlimit:4;stroke-dasharray:none;stroke-opacity:1"
         id="path844-2-0"
         cx="169.6875"
         cy="101.08333"
         r="1.5" />
    </g>
    <g
       id="g882-7-2"
       transform="translate(10.286589,59.006184)"
       style="fill:#cccccc">
      <rect
         style="fill:#cccccc;fill-opacity:1;stroke:#000000;stroke-width:0.2;stroke-miterlimit:4;stroke-dasharray:none;stroke-opacity:1"
         id="rect842-2-7"
         width="30"
         height="30"
         x="166.6875"
         y="74.083336" />
      <circle
         style="fill:#cccccc;fill-opacity:1;stroke:#000000;stroke-width:0.2;stroke-miterlimit:4;stroke-dasharray:none;stroke-opacity:1"
         id="path844-27-0"
         cx="169.6875"
         cy="77.083328"
         r="1.5" />
      <circle
         style="opacity:0.999733;fill:#cccccc;fill-opacity:1;stroke:#000000;stroke-width:0.2;stroke-miterlimit:4;stroke-dasharray:none;stroke-opacity:1"
         id="path844-7-4-4"
         cx="193.6875"
         cy="77.083328"
         r="1.5" />
      <circle
         style="fill:#cccccc;fill-opacity:1;stroke:#000000;stroke-width:0.2;stroke-miterlimit:4;stroke-dasharray:none;stroke-opacity:1"
         id="path844-6-7-3"
         cx="193.6875"
         cy="101.08333"
         r="1.5" />
      <circle
         style="fill:#cccccc;fill-opacity:1;stroke:#000000;stroke-width:0.2;stroke-miterlimit:4;stroke-dasharray:none;stroke-opacity:1"
         id="path844-2-0-6"
         cx="169.6875"
         cy="101.08333"
         r="1.5" />
    </g>
    <g
       id="g882-7-3"
       transform="translate(-69.61341,59.006184)"
       style="fill:#cccccc">
      <rect
         style="fill:#cccccc;fill-opacity:1;stroke:#000000;stroke-width:0.2;stroke-miterlimit:4;stroke-dasharray:none;stroke-opacity:1"
         id="rect842-2-5"
         width="30"
         height="30"
         x="166.6875"
         y="74.083336" />
      <circle
         style="fill:#cccccc;fill-opacity:1;stroke:#000000;stroke-width:0.2;stroke-miterlimit:4;stroke-dasharray:none;stroke-opacity:1"
         id="path844-27-8"
         cx="169.6875"
         cy="77.083328"
         r="1.5" />
      <circle
         style="opacity:0.999733;fill:#cccccc;fill-opacity:1;stroke:#000000;stroke-width:0.2;stroke-miterlimit:4;stroke-dasharray:none;stroke-opacity:1"
         id="path844-7-4-9"
         cx="193.6875"
         cy="77.083328"
         r="1.5" />
      <circle
         style="fill:#cccccc;fill-opacity:1;stroke:#000000;stroke-width:0.2;stroke-miterlimit:4;stroke-dasharray:none;stroke-opacity:1"
         id="path844-6-7-5"
         cx="193.6875"
         cy="101.08333"
         r="1.5" />
      <circle
         style="fill:#cccccc;fill-opacity:1;stroke:#000000;stroke-width:0.2;stroke-miterlimit:4;stroke-dasharray:none;stroke-opacity:1"
         id="path844-2-0-9"
         cx="169.6875"
         cy="101.08333"
         r="1.5" />
    </g>
  </g>
  <g
     inkscape:label="Motor Base"
     inkscape:groupmode="layer"
     id="layer1"
     style="display:inline;opacity:0.6">
    <rect
       style="fill:#f2f2f2;fill-opacity:1;stroke:#000000;stroke-width:0.225266;stroke-miterlimit:4;stroke-dasharray:none;stroke-opacity:1"
       id="rect835"
       width="139.77473"
       height="139.77473"
       x="82.086723"
       y="38.302143"
       rx="12.706794"
       ry="9.9839096" />
    <circle
       style="display:inline;opacity:0.999733;fill:#ffffff;fill-opacity:1;stroke:#000000;stroke-width:0.2;stroke-miterlimit:4;stroke-dasharray:none;stroke-opacity:1"
       id="path962-2-7"
       cx="206.97424"
       cy="108.18951"
       r="2" />
    <circle
       style="display:inline;opacity:0.999733;fill:#ffffff;fill-opacity:1;stroke:#000000;stroke-width:0.2;stroke-miterlimit:4;stroke-dasharray:none;stroke-opacity:1"
       id="path962-8-8-9"
       cx="91.974091"
       cy="108.18951"
       r="2" />
    <circle
       style="display:inline;opacity:0.999733;fill:#ffffff;fill-opacity:1;stroke:#000000;stroke-width:0.2;stroke-miterlimit:4;stroke-dasharray:none;stroke-opacity:1"
       id="path962-4-8-4"
       cx="151.97409"
       cy="48.189518"
       r="2" />
    <circle
       style="display:inline;opacity:0.999733;fill:#ffffff;fill-opacity:1;stroke:#000000;stroke-width:0.2;stroke-miterlimit:4;stroke-dasharray:none;stroke-opacity:1"
       id="path962-9-2-7"
       cx="125.5741"
       cy="170.28952"
       r="2" />
    <circle
       style="display:inline;opacity:0.999733;fill:#ffffff;fill-opacity:1;stroke:#000000;stroke-width:0.2;stroke-miterlimit:4;stroke-dasharray:none;stroke-opacity:1"
       id="path962-9-2-3-5"
       cx="178.36407"
       cy="170.28952"
       r="2" />
    <text
       xml:space="preserve"
       style="font-style:normal;font-weight:normal;font-size:10.5833px;line-height:1.25;font-family:sans-serif;letter-spacing:0px;word-spacing:0px;fill:#000000;fill-opacity:1;stroke:none;stroke-width:0.264583"
       x="136.21025"
       y="105.34215"
       id="text1544"><tspan
         sodipodi:role="line"
         x="136.21025"
         y="105.34215"
         style="stroke-width:0.264583"
         id="tspan1546">Motor</tspan></text>
    <text
       xml:space="preserve"
       style="font-style:normal;font-weight:normal;font-size:10.5833px;line-height:1.25;font-family:sans-serif;letter-spacing:0px;word-spacing:0px;fill:#000000;fill-opacity:1;stroke:none;stroke-width:0.264583"
       x="139.00076"
       y="120.88411"
       id="text1552"><tspan
         sodipodi:role="line"
         id="tspan1550"
         x="139.00076"
         y="120.88411"
         style="stroke-width:0.264583">Base</tspan></text>
  </g>
  <g
     inkscape:groupmode="layer"
     id="layer4"
     inkscape:label="Middle Layer"
     style="display:inline;opacity:0.6">
    <rect
       style="display:inline;fill:#f2f2f2;fill-opacity:1;stroke:#000000;stroke-width:0.304436;stroke-miterlimit:4;stroke-dasharray:none;stroke-opacity:1"
       id="rect835-7"
       width="210"
       height="179.69556"
       x="46.974091"
       y="18.341732"
       rx="15"
       ry="16.878574" />
    <circle
       style="display:inline;opacity:0.999733;fill:#ffffff;fill-opacity:1;stroke:#000000;stroke-width:0.2;stroke-miterlimit:4;stroke-dasharray:none;stroke-opacity:1"
       id="path962-2"
       cx="206.97424"
       cy="108.18951"
       r="2" />
    <circle
       style="display:inline;opacity:0.999733;fill:#ffffff;fill-opacity:1;stroke:#000000;stroke-width:0.2;stroke-miterlimit:4;stroke-dasharray:none;stroke-opacity:1"
       id="path962-8-8"
       cx="91.974091"
       cy="108.18951"
       r="2" />
    <circle
       style="display:inline;opacity:0.999733;fill:#ffffff;fill-opacity:1;stroke:#000000;stroke-width:0.2;stroke-miterlimit:4;stroke-dasharray:none;stroke-opacity:1"
       id="path962-4-8"
       cx="151.97409"
       cy="48.189518"
       r="2" />
    <circle
       style="display:inline;opacity:0.999733;fill:#ffffff;fill-opacity:1;stroke:#000000;stroke-width:0.2;stroke-miterlimit:4;stroke-dasharray:none;stroke-opacity:1"
       id="path962-9-2"
       cx="125.5741"
       cy="170.28952"
       r="2" />
    <circle
       style="display:inline;opacity:0.999733;fill:#ffffff;fill-opacity:1;stroke:#000000;stroke-width:0.2;stroke-miterlimit:4;stroke-dasharray:none;stroke-opacity:1"
       id="path962-9-2-3"
       cx="178.36409"
       cy="170.28952"
       r="2" />
    <circle
       style="display:inline;opacity:0.999733;fill:#ffffff;fill-opacity:1;stroke:#000000;stroke-width:0.2;stroke-miterlimit:4;stroke-dasharray:none;stroke-opacity:1"
       id="path962-4-8-2"
       cx="227.12631"
       cy="38.18951"
       r="2" />
    <circle
       style="display:inline;opacity:0.999733;fill:#ffffff;fill-opacity:1;stroke:#000000;stroke-width:0.2;stroke-miterlimit:4;stroke-dasharray:none;stroke-opacity:1"
       id="path962-4-8-2-0"
       cx="227.12631"
       cy="108.18951"
       r="2" />
    <circle
       style="display:inline;opacity:0.999733;fill:#ffffff;fill-opacity:1;stroke:#000000;stroke-width:0.2;stroke-miterlimit:4;stroke-dasharray:none;stroke-opacity:1"
       id="path962-4-8-2-0-6"
       cx="76.821877"
       cy="108.18951"
       r="2" />
    <circle
       style="display:inline;opacity:0.999733;fill:#ffffff;fill-opacity:1;stroke:#000000;stroke-width:0.2;stroke-miterlimit:4;stroke-dasharray:none;stroke-opacity:1"
       id="path962-4-8-2-0-6-3"
       cx="76.821877"
       cy="38.18951"
       r="2" />
    <circle
       style="display:inline;opacity:0.999733;fill:#ffffff;fill-opacity:1;stroke:#000000;stroke-width:0.2;stroke-miterlimit:4;stroke-dasharray:none;stroke-opacity:1"
       id="path962-4-8-2-0-5"
       cx="242.12631"
       cy="183.18951"
       r="2" />
    <circle
       style="display:inline;opacity:0.999733;fill:#ffffff;fill-opacity:1;stroke:#000000;stroke-width:0.2;stroke-miterlimit:4;stroke-dasharray:none;stroke-opacity:1"
       id="path962-4-8-2-0-5-7"
       cx="61.821873"
       cy="183.18951"
       r="2" />
  </g>
  <g
     inkscape:groupmode="layer"
     id="layer6"
     inkscape:label="Pi"
     style="display:inline;opacity:0.6">
    <g
       id="g990"
       style="display:inline;opacity:0.7;fill:#00aa00;fill-opacity:1;stroke-width:0.5;stroke-miterlimit:4;stroke-dasharray:none"
       transform="rotate(180,135.87455,128.65885)">
      <g
         id="g891"
         transform="translate(2.919401,54.097052)"
         style="fill:#00aa00;fill-opacity:1;stroke-width:0.5;stroke-miterlimit:4;stroke-dasharray:none">
        <rect
           transform="scale(-1)"
           y="-79.810265"
           x="-163.32018"
           height="54.529114"
           width="92.929123"
           id="rect4715"
           style="display:inline;fill:#00aa00;fill-opacity:1;stroke:#000000;stroke-width:0.5;stroke-miterlimit:4;stroke-dasharray:none;stroke-opacity:1" />
        <path
           inkscape:connector-curvature="0"
           id="path999"
           d="m 162.25361,29.17737 h -5"
           style="fill:#00aa00;fill-opacity:1;stroke:#000000;stroke-width:0.5;stroke-linecap:butt;stroke-linejoin:miter;stroke-miterlimit:4;stroke-dasharray:none;stroke-opacity:1" />
        <path
           inkscape:connector-curvature="0"
           id="path1001"
           d="m 159.63018,26.545708 v 5"
           style="fill:#00aa00;fill-opacity:1;stroke:#000000;stroke-width:0.5;stroke-linecap:butt;stroke-linejoin:miter;stroke-miterlimit:4;stroke-dasharray:none;stroke-opacity:1" />
        <path
           inkscape:connector-curvature="0"
           id="path999-8"
           d="M 104.25361,28.914046 H 99.253609"
           style="display:inline;fill:#00aa00;fill-opacity:1;stroke:#000000;stroke-width:0.5;stroke-linecap:butt;stroke-linejoin:miter;stroke-miterlimit:4;stroke-dasharray:none;stroke-opacity:1" />
        <path
           inkscape:connector-curvature="0"
           id="path1001-9"
           d="m 101.75361,26.545708 v 5"
           style="display:inline;fill:#00aa00;fill-opacity:1;stroke:#000000;stroke-width:0.5;stroke-linecap:butt;stroke-linejoin:miter;stroke-miterlimit:4;stroke-dasharray:none;stroke-opacity:1" />
        <path
           inkscape:connector-curvature="0"
           id="path999-6"
           d="m 162.25361,77.914043 h -5"
           style="display:inline;fill:#00aa00;fill-opacity:1;stroke:#000000;stroke-width:0.5;stroke-linecap:butt;stroke-linejoin:miter;stroke-miterlimit:4;stroke-dasharray:none;stroke-opacity:1" />
        <path
           inkscape:connector-curvature="0"
           id="path1001-2"
           d="m 159.87703,75.545713 v 5"
           style="display:inline;fill:#00aa00;fill-opacity:1;stroke:#000000;stroke-width:0.5;stroke-linecap:butt;stroke-linejoin:miter;stroke-miterlimit:4;stroke-dasharray:none;stroke-opacity:1" />
        <g
           transform="rotate(90,105.37413,117.82784)"
           id="g1047"
           style="fill:#00aa00;fill-opacity:1;stroke-width:0.5;stroke-miterlimit:4;stroke-dasharray:none">
          <path
             style="display:inline;fill:#00aa00;fill-opacity:1;stroke:#000000;stroke-width:0.5;stroke-linecap:butt;stroke-linejoin:miter;stroke-miterlimit:4;stroke-dasharray:none;stroke-opacity:1"
             d="m 65.460338,118.94836 v 5"
             id="path999-9"
             inkscape:connector-curvature="0"
             inkscape:transform-center-x="15.518529"
             inkscape:transform-center-y="-5.8796345" />
          <path
             style="display:inline;fill:#00aa00;fill-opacity:1;stroke:#000000;stroke-width:0.5;stroke-linecap:butt;stroke-linejoin:miter;stroke-miterlimit:4;stroke-dasharray:none;stroke-opacity:1"
             d="m 62.828676,121.32494 h 5"
             id="path1001-8"
             inkscape:connector-curvature="0"
             inkscape:transform-center-x="15.650191"
             inkscape:transform-center-y="-6.0030585" />
        </g>
      </g>
    </g>
    <text
       xml:space="preserve"
       style="font-style:normal;font-weight:normal;font-size:10.5833px;line-height:1.25;font-family:sans-serif;letter-spacing:0px;word-spacing:0px;fill:#000000;fill-opacity:1;stroke:none;stroke-width:0.264583"
       x="147.26639"
       y="151.96266"
       id="text1536"><tspan
         sodipodi:role="line"
         id="tspan1534"
         x="147.26639"
         y="151.96266"
         style="stroke-width:0.264583">Pi</tspan></text>
    <text
       xml:space="preserve"
       style="font-style:normal;font-weight:normal;font-size:10.5833px;line-height:1.25;font-family:sans-serif;letter-spacing:0px;word-spacing:0px;fill:#000000;fill-opacity:1;stroke:none;stroke-width:0.264583"
       x="134.6057"
       y="87.25621"
       id="text1540"><tspan
         sodipodi:role="line"
         id="tspan1538"
         x="134.6057"
         y="87.25621"
         style="stroke-width:0.264583">Middle</tspan></text>
  </g>
  <g
     inkscape:groupmode="layer"
     id="layer3"
     inkscape:label="Top Layer"
     style="display:inline;opacity:0.6">
    <circle
       style="display:inline;opacity:0.999733;fill:#ffffff;fill-opacity:1;stroke:#000000;stroke-width:0.2;stroke-miterlimit:4;stroke-dasharray:none;stroke-opacity:1"
       id="path962-4-8-2-2"
       cx="206.97412"
       cy="58.189522"
       r="2" />
    <circle
       style="display:inline;opacity:0.999733;fill:#ffffff;fill-opacity:1;stroke:#000000;stroke-width:0.2;stroke-miterlimit:4;stroke-dasharray:none;stroke-opacity:1"
       id="path962-4-8-2-0-7"
       cx="206.97412"
       cy="158.18953"
       r="2" />
    <circle
       style="display:inline;opacity:0.999733;fill:#ffffff;fill-opacity:1;stroke:#000000;stroke-width:0.2;stroke-miterlimit:4;stroke-dasharray:none;stroke-opacity:1"
       id="path962-4-8-2-0-6-2"
       cx="96.974091"
       cy="158.18953"
       r="2" />
    <circle
       style="display:inline;opacity:0.999733;fill:#ffffff;fill-opacity:1;stroke:#000000;stroke-width:0.2;stroke-miterlimit:4;stroke-dasharray:none;stroke-opacity:1"
       id="path962-4-8-2-0-6-3-0"
       cx="96.974091"
       cy="58.189522"
       r="2" />
    <rect
       style="display:inline;opacity:0.6;fill:#f2f2f2;fill-opacity:1;stroke:#000000;stroke-width:0.304435;stroke-miterlimit:4;stroke-dasharray:none;stroke-opacity:1"
       id="rect835-7-9"
       width="210"
       height="179.69556"
       x="46.974091"
       y="18.341732"
       rx="15"
       ry="16.878574" />
    <circle
       style="display:inline;opacity:0.999733;fill:#ffffff;fill-opacity:1;stroke:#000000;stroke-width:0.2;stroke-miterlimit:4;stroke-dasharray:none;stroke-opacity:1"
       id="path962-4-8-2-5"
       cx="227.12631"
       cy="38.18951"
       r="2" />
    <circle
       style="display:inline;opacity:0.999733;fill:#ffffff;fill-opacity:1;stroke:#000000;stroke-width:0.2;stroke-miterlimit:4;stroke-dasharray:none;stroke-opacity:1"
       id="path962-4-8-2-0-8"
       cx="227.12631"
       cy="108.18951"
       r="2" />
    <circle
       style="display:inline;opacity:0.999733;fill:#ffffff;fill-opacity:1;stroke:#000000;stroke-width:0.2;stroke-miterlimit:4;stroke-dasharray:none;stroke-opacity:1"
       id="path962-4-8-2-0-6-6"
       cx="76.821869"
       cy="108.18951"
       r="2" />
    <circle
       style="display:inline;opacity:0.999733;fill:#ffffff;fill-opacity:1;stroke:#000000;stroke-width:0.2;stroke-miterlimit:4;stroke-dasharray:none;stroke-opacity:1"
       id="path962-4-8-2-0-6-3-5"
       cx="76.821869"
       cy="38.18951"
       r="2" />
    <circle
       style="display:inline;opacity:0.999733;fill:#ffffff;fill-opacity:1;stroke:#000000;stroke-width:0.2;stroke-miterlimit:4;stroke-dasharray:none;stroke-opacity:1"
       id="path962-4-8-2-0-5-5"
       cx="242.12631"
       cy="183.18951"
       r="2" />
    <circle
       style="display:inline;opacity:0.999733;fill:#ffffff;fill-opacity:1;stroke:#000000;stroke-width:0.2;stroke-miterlimit:4;stroke-dasharray:none;stroke-opacity:1"
       id="path962-4-8-2-0-5-7-1"
       cx="61.821869"
       cy="183.18951"
       r="2" />
    <text
       xml:space="preserve"
       style="font-style:normal;font-weight:normal;font-size:10.5833px;line-height:1.25;font-family:sans-serif;letter-spacing:0px;word-spacing:0px;fill:#000000;fill-opacity:1;stroke:none;stroke-width:0.264583"
       x="141.644"
       y="112.03681"
       id="text1528"><tspan
         sodipodi:role="line"
         x="141.644"
         y="112.03681"
         style="stroke-width:0.264583"
         id="tspan1530">TOP</tspan></text>
  </g>
</svg>
